2 million years ago
1065 million years ago
65 billion years ago
65 million
65 million years, ago
290 million years ago
65.3 million years ago
[65 million years ago (Cretaceous)]
I loved 137 million years ago (Cretaceous).
I was born 180 million years ago (Jurassic).
230 million years ago (Triassic) was better than 90 million years ago (Cretaceous).
