Haematophilina
pterergate
unmelodramatic
lionization
Coelentera
discolored
pedatisect
nonantigenic
beslime
partitura
Cratinean
lawlessly
intraseptal
nephritic
cylinder
contrite
vestryize
heptameride
windily cyclose
Puppis insulant
couril
dolesomeness
unplacated
baioc
phytobacteriology
rigmarolery Ibo
unrighteous
valued
nightchurr
trechmannite
soricine
perisinuous
baddishly
pentanitrate
geomorphist
impoliticalness
sloted
suberinization
pancreatopathy
porporate
myelonic
prosogyrate
windowshut
Lituitidae
lupoid
undisconnected
merorganization
correspond
unrallied
whereas relabel
chromoisomerism
inebriety
undermate
thyrsiflorous
demiurgism
nurser
extracalicular
Craterellus
mina crownlet
ovotestis
colonist
pectinately
tuberculum
tetragonally
recasting
obsequience
knightless
Hydrachnidae
unnettled
whirled
unpenciled
emblossom
dissipative
Raffaelesque
Uaupe quipu
uropoiesis
conjugator
roentgenogram
rewarm
tolerationism
auspicial
undemolished
triarii poinder
lokaose wouldst
unwindingly
ziamet wallless
Chiococca
strapped
pardonmonger
lissencephalous
abashedness
bookboard
replete
naphthalin
saffrony
Tantalic
afterimpression
bellicosity
swashwork
discharging
ramous axseed
thumbstring
saccharogalactorrhea
myrrhic reabuse
housemaid
landownership
sulkiness
peropodous
anaerobically
mould surgeful
cricothyroid
driftbolt
unpacific
renerve
chuckwalla
restate
diadumenus
alternativity
patener visne
catamaran
indesignate
liang
contagioned
ragefully
trichocephaliasis
Scorpionida
caulicle
blackdamp
flaxbush
desertness
oversaturate
ringbone
clausular
slideway
hexandry
football
glidewort
mumbling
prepossessing
physiatrics
athrough
mispunctuate
uneulogized
acreak
discriminative
decayed Arkite
albaspidin
overhigh
patriarchal
arrowlike
terebratuloid
overheaviness
sculpturer
adamsite codder
hydrodrome
Isaria apprise
rebuy
greenockite
adread
intoxicable
Philistinish
corporealist
flaggy aluminyl
cylindroogival
suckerel
entoptically
unwithholding
deadhead
pinking
nonbachelor
gestational
woollyish
monocarpal
teratism
forehard Zulu
bioplasm
crustily
haruspical
gulonic
interactivity
destructible
underact
phototypography
earnings
nephropyosis
swarajism
aircraftswoman
idiomorphism
