saccharomycosis
prepubertal
phrenopathia
Aegean
Monocentris
planar
setback
kerana
majestically
wheelbird
civilize
possessional
pyoxanthose
intendedly
bladebone
primitias
oversensible
Timuquanan
nightlong
socialness
gunless
gastroenteroptosis
stright
hoistway
unclawed
Wycliffism
jabble
metaphrasis
Chamaeleontidae
thyself
aerophilous
oxozone
bluntish
julienite
universitary
morrhuate
scrunge
Elymus
autunite
metric
outrun
platyglossal
fraternize
paleichthyology
unmulled
largehanded
unextenuating
disbar
brangle
alterer
protomala
hundredth
rhonchial
Catty
warmongering
imitative
cavish
embolectomy
dentata
tuneful
vaccinophobia
Sotik rich
curmudgeon
spritty
undernsong
iridodesis
chariness
vagotropic
coastguardman
scholarian
squamae
fleche
mehalla
reawakening
kerseymere
chronogrammatic
hangnest
beruffed
shamble
bucolic
superillustration
paraoperation
ecologist
stroll
antirachitic
reconquer
vociferate
spiregrass
wimick
unamalgamated
lyceal
histrionically
lininess
gentilitious
accusatival
reradiation
shepherdism
illuminatus
snootily
pentadactyl
thrombase
fetometry
link
superfructified
fitful
pleurocentesis
tuberculize
underhatch
gazophylacium
bugology
encoignure
convoy
electrodentistry
schistoprosopia
narcose
spitter
pocketlike
biosystematist
phaeodarian
nephrostomous
nudibranchian
biparous
tock
unnimbleness
strippit
tufty
Phytotomidae
Cappadocian
Geryonia
chirpling
suggestment
protopod
reshuffle
rye
insouciance
solum
compressingly
heterographical
heelmaking
epistoma
proboscidian
Diaspora
centrosome
whitten
ichnographically
wodge
hemerologium
chondrosin
siderographist
hereon banal
invaccination
bipaleolate
forjesket
pawnage
leaner
undistasteful
unscored
avenge
phytic
contextual
grandfatherish
Pristipomatidae
ephebos
Ticuna
intermessage
adolescently
inertia
usucapt
cytophysics
timaline
astrocytoma
superfluent
muricine
overcreed
harman
unscabbard
graisse
ignitor
undisturbance
sublanate
angioataxia
ungathered
affixion
burmite
boned
prejuvenile
heehaw
importunacy
apometabolic
shedwise
Lobale firry
dishelm
heelpath
semifigure
burweed
shorten
influent
mellon
squamotemporal
unprincess
Apostolic
Anatoly
Whiggery
lockhole
Macroscelides
arsenation
autoserum
angletouch
shoreman
postmaster
encystment
rupestrian
graspingly
verticillaster
trifoliated
Troic
bote
betrayment
ingallantry
aftersend
anisilic
imprecatory
meniscal
questionableness
metatarse
unextractable
heterochromatism
overwheel
superfecundity
Subulicornia
pott
accolade
teanal
nutcracker
arthrography
bend
Strigula
toywoman
uncomprehension
tatie
servicelessness
trichocephaliasis
tee exult
aggregable
capillarity
disasinate
cammock
institutive
gastricism
monochlorination
edaphology
antiperistatic
ballotist
divergent
cocowood
didie
dipyrenous
homoplasis
chlorophyllite
outflatter
bitumed
nonpresidential
ym ecesis
agricultor
hadentomoid
usurpingly
cumulation
typhosis
peppery
upholstered
ithomiid
tiled
Bucorvus
quackishly
exacerbescence
corvoid
monitorially
microevolution
officious
hura anoetic
hereafter
monosomic
cajuputene
puckball
mother
Plantaginaceae
besplash
angioplany
publicism
Olynthus
busky
slavish
nondisqualifying
Cathartes
straightish
kryptic
Congreso
erythrocytometer
resistable
virgal
schalmey
alternisepalous
neathmost
pretendant
carbolfuchsin
tidewaiter
carat
immoralism
dissatisfiedly
celiitis
Kaibab
erethistic
symmorphism
opinable
cellaress
amethodically
insentient
foreorlop
toddler
millclapper
memorize
Earl
nonministerial
pasteurization
nonrecluse
unmalled
vibration
trichatrophia
heteroplasia
whin adult
scharf
suspecter
pellate
sublapsarianism
ectoethmoid
Parsee
unsinfully
preparator
scryer
bookworm
matronism
oversystematically
Aulacomniaceae
phosphamide
stillhouse
scurflike
elaborative
philosophaster
monodist
periclaustral
anhinga
retinoscopist
synodalian
pseudosessile
Bakwiri
coindicant
absinthol
unricht
psychoanalyst
woon
psalterist
swinehead
massotherapy
nonbankable
verrucoseness
raccoonberry
blightbird
epidermophytosis
occultate
isochronical
Clethraceae
interlineally
uphurl
reperceive
quadriseptate
Hyperborean
gemmuliferous
arboricole
Daltonic
genua
unhashed
evzone
undiscouraging
pollock
egotize
dextrin
catechetical
shadow
upharrow
supracensorious
endamage
catvine
noctilucan
ghostlike
phytopsyche
Demodex
prothalloid
gracility
tubesmith
compacted
craterlet
endodontia
ethnology
scouthood
heumite
ceratioid
