spermatoid mico
subgroup Alnitham
sergeancy
stibethyl
fenderless
otomycosis
kaliborite toffee
illicitness
technology
onycha pickwork
maroon blushingly
bemoult
philogarlic
carbanilide
sleeper
circumdenudation
Moll
provisionment
unbanished
disobligingness
cloamer crawberry
imband
noop
stalker
animatedly
Pterichthyodes
Pythagoreanize
grammalogue
bypath protrusive
axiate
unsanitated
papuloerythematous
nonrecommendation
flank unspoilably
pretaste
cancerweed
apocrenic
ironside loath
kokra
ipsedixitish
timeable vera
fanwise arbacin
outrun
demonophobia
abstemious
protoapostate
bloodstanch
noiselessness
acipenserid
untolerable
contemptibility
Atridean besit
region unwriggled
quadruplator
dictate phanic
eutherian
abscision
Hyracotheriinae
viminal metalist
unrefined
paratomium
retransform
Megalichthys
misdecision
objectlessness
Shiah tapia
spline unseeded
twitterboned
discursory
antimasque
gastroenterocolostomy
Balkanic
windsucker
terebinthina
misplant
nightstool
goldenmouthed
roquet
kori imaginably
cavernal frustule
advantageousness
Labrus
anterodorsal waif
ocherish
diatomacean
tabaxir Venite
reader
presocialism
abator tantrik
pelitic
Ephrathite
inconcinnity
subapparent
tetrameralian
Thecophora
unconsent
teleotrocha
acmite astream
Boswellism
thulium sealer
tripudiation
unsworn newt
subcategory
caricaturist
subtrihedral
hologastrular
dermapterous
Chaetites pissant
Doketic Rulander
piroplasmosis
gugu afterings
frivolize
byordinary
filemot chloropia
terebinic
anallergic
arborescent
parlatory cambium
unfluxile
rightward
Shetland
granodiorite
trinitrin
bistournage
copulable
conscionably
melastomad
biosocial
carbeen
auxoaction benj
Rosellinia stir
Tollefsen
dispeople
pensived ghafir
oarhole
lacertilian
ungraceful
bladderless
undine libidinous
estivation
anankastic
polysporic
Owenist covey
sensitiveness
misusement
botryoidally
siccity
quarterization
biliation
palestrian glaga
short
thimbleberry
coelosperm
plantaris whelked
lubrifaction
chitose
nonpulmonary
maharaja
pedipulation
rehead
inodorousness
scomberoid
trephocyte uvular
subcolumnar
replan beevish
upstroke outsider
